…
ℹ Specify the column types or set `show_col_types = FALSE` to quiet this message.
> train$Cover_Type <- as.factor(train$Cover_Type)
> 
> train$Cover_Type <- as.factor(train$Cover_Type)
> 
> my_recipe <- recipe(Cover_Type ~ ., data = train) %>%
+   update_role(Id, new_role = "ID") %>%
+   #step_mutate_at(all_numeric_predictors(), fn = factor) %>% # turn all numeric features into factors
+   #step_other(all_factor_predictors(), threshold = .005) %>% # combines categorical values that occur <5% into an "other" value
+   #step_dummy(all_nominal_predictors()) # dummy variable encoding
+   step_lencode_mixed(all_nominal_predictors(), outcome = vars(Cover_Type))  #target encoding
> 
> 
> bake(prep(my_recipe), new_data = train)
# A tibble: 15,120 × 56
      Id Elevation Aspect Slope Horizontal_Distance_To_…¹ Vertical_Distance_To…²
   <dbl>     <dbl>  <dbl> <dbl>                     <dbl>                  <dbl>
 1     1      2596     51     3                       258                      0
 2     2      2590     56     2                       212                     -6
 3     3      2804    139     9                       268                     65
 4     4      2785    155    18                       242                    118
 5     5      2595     45     2                       153                     -1
 6     6      2579    132     6                       300                    -15
 7     7      2606     45     7                       270                      5
 8     8      2605     49     4                       234                      7
 9     9      2617     45     9                       240                     56
10    10      2612     59    10                       247                     11
# ℹ 15,110 more rows
# ℹ abbreviated names: ¹​Horizontal_Distance_To_Hydrology,
#   ²​Vertical_Distance_To_Hydrology
# ℹ 50 more variables: Horizontal_Distance_To_Roadways <dbl>,
#   Hillshade_9am <dbl>, Hillshade_Noon <dbl>, Hillshade_3pm <dbl>,
#   Horizontal_Distance_To_Fire_Points <dbl>, Wilderness_Area1 <dbl>,
#   Wilderness_Area2 <dbl>, Wilderness_Area3 <dbl>, Wilderness_Area4 <dbl>, …
…
